70 20 2503 0 0 0 0 0 0 0 1 0 0 0 0 0 1 0 0 1 0 0 0 
83 20 3387 0 0 1 0 0 0 1 0 0 0 0 0 0 0 0 0 0 0 1 1 
147 20 759 0 0 0 0 0 0 0 0 0 1 0 0 0 0 0 1 0 0 0 0 
178 20 219 0 0 0 0 0 0 0 0 0 0 0 0 0 0 0 0 0 0 1 0 
221 20 1537 0 0 0 0 0 0 0 0 1 0 0 1 0 1 0 0 0 0 0 1 
242 20 602 0 0 0 0 0 1 0 0 0 0 0 0 0 0 0 0 0 0 0 0 
261 20 1496 0 0 0 1 1 0 0 0 0 0 0 0 0 0 0 0 0 0 0 1 
273 20 3070 0 0 0 0 0 0 0 0 1 0 0 0 0 0 0 0 0 0 0 0 
317 20 132 0 0 1 0 0 0 0 0 0 0 0 0 0 0 0 0 0 0 0 0 
333 20 3796 0 1 0 0 0 0 0 0 0 0 0 0 1 0 0 0 0 0 0 1 
351 20 1373 0 1 0 0 0 0 0 0 0 0 0 0 0 0 0 0 0 0 0 0 
370 20 414 0 0 0 0 0 0 0 0 0 0 0 0 0 0 1 0 0 0 0 1 
386 20 825 1 0 0 0 0 0 0 0 0 0 0 0 0 0 0 0 0 0 0 0 
389 20 2580 1 0 0 0 0 0 0 0 0 0 0 0 0 0 0 0 0 0 0 0 
426 20 2397 0 0 1 0 1 0 1 0 0 0 0 0 0 0 0 0 0 1 0 0 
496 20 773 0 0 0 0 0 0 0 0 0 0 0 0 0 0 0 0 0 1 0 0 
497 20 1363 0 0 0 0 0 0 1 0 0 0 0 0 0 0 0 0 1 0 0 0 
530 20 1026 0 0 1 0 0 0 0 0 0 0 0 0 1 0 0 0 0 0 0 0 
541 20 366 0 0 0 0 0 0 0 0 0 0 0 0 1 0 0 0 0 0 0 0 
589 20 2670 0 0 0 1 0 0 0 0 0 0 0 0 0 0 0 0 1 0 0 0 
592 20 708 0 0 0 0 0 0 0 0 0 0 0 0 0 1 0 0 0 0 0 0 
598 20 271 0 0 0 0 0 0 0 0 0 0 0 1 0 0 0 0 0 0 0 0 
634 20 319 0 0 0 0 0 0 0 0 0 0 0 0 0 0 0 0 0 0 0 1 
665 20 1736 1 0 0 0 0 1 0 0 0 0 0 0 1 0 0 0 0 0 0 0 
673 20 1151 0 0 0 0 1 1 0 0 0 0 0 0 0 1 0 0 0 0 0 0 
676 20 935 0 0 0 0 0 0 0 0 1 0 0 0 1 0 0 0 0 0 0 0 
689 20 3233 0 1 1 0 0 0 0 1 0 1 0 0 1 0 0 0 0 0 0 0 
723 20 522 0 0 0 1 0 0 0 0 0 0 0 0 0 0 0 1 0 0 0 0 
754 20 218 0 0 0 0 0 0 0 0 1 0 0 0 0 0 0 0 0 0 0 0 
775 20 1047 1 0 0 0 0 0 0 0 0 0 1 0 0 0 0 0 0 0 1 0 
782 20 14 0 0 0 0 1 0 0 0 0 0 0 0 0 0 0 0 0 0 0 0 
796 20 494 0 0 0 0 1 0 0 0 0 0 0 0 0 0 0 1 0 0 0 0 
810 20 1427 0 0 0 0 0 0 0 0 0 0 0 0 1 0 0 0 0 0 0 0 
857 20 3815 0 0 0 0 0 0 0 0 0 0 0 0 0 0 0 0 0 1 0 0 
881 20 1456 0 0 0 0 0 0 0 0 0 0 0 0 0 0 0 1 0 1 0 0 
908 20 2083 0 0 0 1 0 0 1 0 1 0 1 0 0 0 0 0 0 0 0 0 
913 20 158 0 0 0 0 0 0 0 1 0 0 0 0 0 0 0 0 0 0 0 0 
924 20 231 0 0 0 0 0 0 0 0 0 0 0 0 0 0 0 1 0 0 0 0 
972 20 5463 0 0 1 1 0 0 0 0 0 0 0 0 0 1 0 0 0 1 0 1 
974 20 460 0 0 0 0 0 0 0 0 1 0 0 0 0 0 0 1 0 0 0 0 
983 20 2183 0 0 1 0 0 0 0 0 0 0 0 1 0 0 0 1 0 0 0 0 
1000 20 885 0 0 0 0 0 0 0 0 1 0 0 0 0 0 0 0 0 0 0 0 
1054 20 1056 0 0 0 0 0 0 0 0 0 0 1 1 0 0 0 0 0 0 0 0 
1070 20 1546 0 0 0 0 0 0 0 0 0 0 1 0 0 0 0 0 0 0 0 1 
1087 20 1813 0 0 0 0 0 0 0 0 0 0 0 0 1 0 0 0 0 0 0 1 
1107 20 2416 0 1 0 0 0 0 0 0 1 0 0 0 0 0 0 0 0 1 0 0 
1151 20 1585 1 0 1 1 0 0 0 0 0 0 0 0 0 1 0 0 0 0 0 0 
1177 20 1365 0 1 0 0 0 0 0 0 0 0 1 0 0 0 1 0 0 0 0 0 
1202 20 1755 0 0 0 0 0 0 0 0 0 0 1 0 0 0 0 0 0 0 0 0 
1215 20 1734 0 0 0 0 0 0 0 0 1 1 0 0 1 0 0 0 0 0 0 0 
1216 20 2987 0 0 0 0 0 1 0 1 0 0 0 0 0 0 0 0 1 0 0 0 
1221 20 1906 0 0 0 0 0 0 1 0 0 0 0 0 0 0 0 1 0 0 0 0 
1285 20 2696 0 0 1 0 0 0 1 0 0 0 0 0 0 0 0 0 1 0 0 0 
1317 20 2427 0 0 0 0 1 1 0 0 0 0 1 0 0 0 0 0 0 0 0 0 
1323 20 4883 0 0 0 0 0 1 0 0 0 0 0 0 0 0 0 0 0 0 0 0 
1345 20 2293 0 0 0 0 1 0 0 0 0 0 0 0 0 1 0 0 0 0 0 0 
1362 20 2060 1 0 0 0 0 0 0 0 0 0 0 0 0 0 0 0 0 0 1 0 
1410 20 1696 0 0 0 0 0 0 0 1 0 0 1 0 0 0 0 0 0 0 0 1 
1418 20 607 0 0 0 0 1 0 0 0 0 0 0 0 0 0 0 0 0 0 1 0 
1421 20 1483 0 1 0 0 0 1 0 0 0 0 1 0 0 0 0 0 0 0 0 0 
1479 20 530 0 0 0 0 0 1 0 0 0 0 0 0 0 0 0 1 0 0 0 0 
1516 20 461 0 0 0 0 0 0 0 0 0 0 0 0 0 0 0 1 0 1 0 0 
1542 20 1251 0 1 0 0 1 0 0 0 0 1 0 0 0 0 0 0 0 1 0 0 
1587 20 392 0 0 0 0 0 0 0 0 1 0 0 0 0 0 0 0 0 0 0 0 
1608 20 503 0 0 0 0 0 0 0 1 0 0 0 0 0 0 0 0 0 0 0 0 
1629 20 1638 0 0 0 0 0 0 1 0 0 0 0 0 0 0 1 0 1 1 0 0 
1651 20 3617 0 0 0 0 0 1 0 0 1 0 0 0 0 0 1 0 0 0 0 0 
1674 20 611 0 0 1 0 0 0 0 0 0 0 0 0 0 0 0 0 0 0 0 0 
1689 20 2097 0 0 0 0 0 0 0 1 0 0 0 0 0 0 0 0 0 0 0 0 
1708 20 1174 0 0 0 0 0 1 0 0 0 0 0 0 0 0 1 0 0 0 0 1 
1742 20 1575 0 0 0 0 1 0 0 0 0 0 0 0 1 0 0 0 0 0 0 0 
1772 20 1808 0 0 0 0 0 0 0 0 0 0 0 1 1 0 0 0 0 0 0 0 
1836 20 649 0 1 0 0 0 1 0 0 1 0 0 0 0 0 0 0 0 0 0 0 
1916 20 354 1 0 0 0 0 0 0 0 0 1 0 0 0 0 0 0 0 0 0 0 
1939 20 813 0 0 1 0 0 0 0 1 0 0 0 0 0 0 0 0 0 0 0 0 
1956 20 559 0 0 0 0 0 0 0 1 0 0 0 0 0 0 0 0 0 0 0 0 
1969 20 1738 0 0 0 0 0 1 0 0 0 0 0 0 0 0 0 0 0 0 0 0 
