1 15 13277 0 1 0 0 1 0 0 0 0 0 0 0 0 0 1 
2 15 16500 1 0 1 0 0 0 0 1 1 0 0 1 0 1 1 
3 15 16147 0 0 0 1 1 1 0 0 1 0 1 1 1 0 1 
4 15 7574 0 1 0 1 1 0 0 0 0 0 1 0 1 0 0 
5 15 17971 1 0 1 1 0 0 0 1 1 1 0 1 0 1 1 
6 15 4786 1 0 0 1 0 0 0 0 0 1 0 0 0 0 0 
7 15 19009 1 1 1 1 0 0 1 1 1 1 1 1 1 0 1 
8 15 20342 0 0 1 1 0 1 0 1 0 0 1 1 0 0 1 
9 15 19758 1 0 0 0 1 1 0 0 0 0 0 0 1 1 1 
10 15 18010 1 0 0 0 0 0 1 0 0 0 0 1 1 1 0 
11 15 6984 1 1 0 0 0 1 0 0 0 0 0 1 0 0 1 
12 15 11857 0 0 0 0 0 1 0 1 0 0 0 1 1 0 0 
13 15 17578 0 0 0 0 1 0 0 1 0 0 1 0 1 1 1 
14 15 14817 1 1 0 0 0 0 0 0 0 1 0 0 1 1 1 
15 15 0 0 0 0 0 0 0 0 0 0 0 0 0 0 0 0 
16 15 13266 1 0 0 0 0 0 0 1 0 0 1 0 0 0 1 
17 15 6060 0 0 0 0 0 0 1 0 1 0 0 0 0 1 0 
18 15 13620 1 1 0 1 1 1 1 0 0 1 0 1 0 0 1 
19 15 18338 1 0 0 0 0 0 0 0 0 1 1 0 1 0 0 
20 15 18577 1 1 0 0 0 1 0 0 0 0 1 0 0 1 0 
21 15 18469 0 0 0 0 0 1 0 0 0 0 1 1 0 1 1 
22 15 12258 0 0 1 0 0 1 1 1 0 0 1 1 0 0 1 
23 15 16661 0 1 1 1 0 0 1 1 1 1 1 0 1 1 0 
24 15 14728 0 1 0 1 0 0 0 1 1 0 0 1 0 0 1 
25 15 13446 0 1 1 0 1 0 1 1 1 0 1 0 1 0 1 
26 15 14670 0 0 1 0 1 0 0 0 0 0 0 0 0 1 1 
27 15 10356 1 0 0 0 0 1 0 0 1 0 1 0 0 0 1 
28 15 15531 0 0 1 0 1 0 1 1 1 0 1 1 1 0 0 
29 15 19698 0 0 0 1 0 0 1 0 1 1 1 1 1 1 0 
30 15 15966 1 1 0 0 1 0 1 1 0 1 1 1 0 1 1 
31 15 15851 0 0 1 0 1 0 0 1 1 1 1 1 1 0 0 
32 15 10536 0 0 0 1 0 0 0 0 1 0 1 0 1 1 1 
33 15 0 0 0 0 0 0 0 0 0 0 0 0 0 0 0 0 
34 15 16879 1 0 0 0 1 1 1 0 1 1 1 1 0 0 0 
35 15 14783 0 0 1 0 0 1 0 1 1 0 0 1 0 1 1 
36 15 10585 0 1 1 0 1 0 0 0 0 0 0 1 1 0 0 
37 15 15629 0 0 0 1 0 0 0 1 1 0 0 0 1 1 1 
38 15 8006 1 0 1 0 0 1 0 0 0 1 0 0 0 0 0 
39 15 10169 1 1 1 0 0 0 0 0 0 1 0 0 0 1 1 
40 15 18153 1 1 1 0 0 0 0 1 1 1 1 1 1 1 1 
41 15 17220 0 0 0 0 1 1 1 0 1 1 1 0 1 0 1 
42 15 9803 1 1 0 0 0 1 1 0 0 0 0 0 1 0 1 
43 15 17403 1 1 1 0 1 0 1 1 1 1 0 0 1 0 1 
44 15 9634 0 0 0 1 0 0 0 0 1 0 0 0 0 1 0 
45 15 9271 0 0 1 1 0 0 1 0 1 1 0 1 1 0 0 
46 15 13869 0 0 0 0 0 0 0 0 0 0 0 1 1 1 1 
47 15 20440 0 1 1 1 1 1 1 1 0 0 1 1 1 1 1 
48 15 5777 1 0 0 0 1 0 1 0 0 0 0 0 0 0 0 
49 15 16446 1 0 1 0 0 1 0 0 1 0 0 1 1 1 1 
50 15 14137 1 0 1 1 0 1 1 0 1 0 1 1 0 0 1 
51 15 19575 0 0 1 1 1 0 0 1 1 0 0 0 1 1 1 
52 15 12821 1 0 0 0 1 0 0 1 0 0 0 0 0 1 1 
53 15 12872 1 1 0 1 1 0 0 1 0 1 0 1 1 0 1 
54 15 11241 0 0 1 0 0 1 0 0 0 1 1 1 0 0 1 
55 15 17537 0 0 1 0 0 1 1 1 0 0 0 1 1 1 0 
56 15 16260 0 1 0 0 0 0 0 0 0 1 0 1 0 1 0 
57 15 12901 0 0 0 0 0 1 1 0 1 0 1 0 0 0 1 
58 15 1926 0 0 1 0 0 0 0 0 0 0 0 0 0 0 0 
59 15 2000 0 0 0 0 0 1 0 0 0 0 0 0 0 0 0 
60 15 9275 1 0 0 1 0 1 0 1 0 0 0 1 0 1 0 
61 15 14851 1 1 1 1 1 0 1 1 0 1 1 1 1 0 1 
62 15 21463 1 0 1 1 1 1 1 1 1 1 1 1 1 1 0 
63 15 7428 0 1 0 0 1 0 1 0 0 0 0 0 1 0 0 
64 15 11893 0 0 0 0 1 0 0 0 0 0 0 0 1 0 1 
65 15 12415 0 0 0 0 0 0 0 0 0 0 1 0 1 0 1 
66 15 4838 1 0 0 0 0 1 0 0 0 1 0 0 0 0 1 
67 15 11339 0 0 1 1 0 0 1 1 0 1 0 0 1 0 1 
68 15 15488 1 1 1 1 0 0 0 1 0 1 1 0 1 0 0 
69 15 9238 1 0 0 0 0 1 1 0 1 1 0 0 1 0 0 
70 15 15137 1 1 1 0 1 0 1 1 1 0 1 0 0 0 1 
71 15 10616 1 0 1 0 0 0 0 0 1 1 0 0 0 0 1 
72 15 14814 1 0 0 0 1 1 0 0 1 0 0 0 1 0 1 
73 15 11895 1 0 0 1 0 0 0 1 1 0 1 1 1 1 0 
74 15 8400 0 0 0 0 0 1 1 0 0 0 1 1 0 1 0 
75 15 8272 1 0 1 1 0 0 0 0 1 0 0 0 0 0 1 
76 15 19720 1 1 0 0 1 0 1 0 0 0 0 0 1 1 1 
77 15 4226 0 0 0 1 0 0 0 0 0 0 0 1 1 0 0 
78 15 17496 1 0 0 1 0 1 0 0 0 0 0 0 0 0 1 
79 15 17290 1 1 0 0 1 1 1 1 1 1 1 1 1 0 1 
80 15 9700 0 0 1 0 0 0 0 1 1 1 1 0 0 0 1 
81 15 16281 1 1 0 0 0 1 0 0 0 0 0 0 1 1 1 
82 15 18848 1 1 1 0 0 1 0 1 1 1 1 1 1 0 1 
83 15 19072 0 0 1 0 0 0 0 0 1 1 0 1 0 1 0 
84 15 17066 0 0 0 1 0 0 1 0 0 0 0 0 0 1 1 
85 15 6269 1 0 0 0 0 0 0 1 0 0 0 0 1 0 1 
86 15 4709 0 1 1 0 0 0 0 0 0 1 0 0 0 0 0 
87 15 10426 0 1 0 0 0 1 0 0 0 1 0 0 0 1 0 
88 15 18442 1 1 1 1 1 1 1 1 0 1 1 1 1 1 1 
89 15 17411 0 0 1 1 0 1 0 0 0 0 0 0 0 1 1 
90 15 11994 0 0 1 0 1 0 1 0 0 0 0 1 1 0 0 
91 15 8124 1 1 0 0 0 0 1 0 1 1 0 0 0 0 0 
92 15 15051 0 1 0 0 0 0 1 0 0 0 0 1 1 0 1 
93 15 8494 0 0 0 0 0 0 0 0 0 0 0 0 1 0 1 
94 15 14643 0 0 0 1 1 1 1 1 0 1 1 0 1 1 1 
95 15 18348 0 1 1 0 0 0 0 0 0 1 1 1 0 1 1 
96 15 15535 0 1 1 0 0 1 0 0 0 1 1 0 1 0 1 
97 15 6766 0 0 1 0 0 0 1 0 0 0 0 1 1 1 1 
98 15 9708 1 0 1 0 0 1 0 0 1 0 1 0 1 0 0 
99 15 20249 1 1 1 1 0 1 0 1 1 1 0 0 1 0 0 
100 15 16025 0 0 0 1 1 1 0 1 1 0 0 0 1 1 1 
101 15 17175 1 1 1 1 0 0 0 1 0 0 1 0 0 1 1 
102 15 24102 1 1 0 1 1 0 0 0 1 0 0 1 0 1 1 
103 15 7252 1 0 1 1 0 0 0 1 0 1 1 0 0 0 1 
104 15 14756 1 1 1 0 1 0 0 0 1 1 1 0 1 1 1 
105 15 14752 0 0 0 0 0 0 1 0 0 0 0 1 0 1 1 
106 15 8680 0 1 1 0 1 1 0 0 0 0 0 0 0 1 0 
107 15 2390 0 0 0 0 0 0 0 0 0 0 1 0 0 0 0 
108 15 23025 0 0 0 1 0 0 0 1 0 0 1 1 0 1 1 
109 15 10534 0 0 0 0 0 1 0 1 0 0 0 0 1 0 1 
110 15 13143 0 0 0 0 0 0 0 0 1 0 1 0 0 1 1 
111 15 19758 1 0 0 0 1 1 1 0 0 1 0 0 0 0 1 
112 15 16970 0 1 0 0 0 0 0 1 0 1 0 0 0 0 1 
113 15 16377 0 1 1 0 1 1 0 1 0 1 0 1 1 1 0 
114 15 21734 0 0 0 1 0 1 0 0 0 0 0 0 0 1 1 
115 15 18933 1 0 0 0 0 0 0 1 1 0 1 0 0 1 1 
116 15 16670 0 0 1 1 1 0 1 0 1 0 0 1 0 1 1 
117 15 14160 1 1 1 1 0 1 1 1 0 0 1 0 0 0 0 
118 15 14920 0 0 0 1 1 1 1 0 0 1 0 1 1 1 1 
119 15 11328 0 0 1 0 0 0 0 0 0 1 0 1 1 1 1 
120 15 18004 0 1 0 1 1 0 1 1 1 1 0 1 1 0 1 
121 15 19856 0 0 1 0 0 0 0 0 0 1 0 0 0 0 1 
122 15 0 0 0 0 0 0 0 0 0 0 0 0 0 0 0 0 
123 15 3452 0 0 0 0 0 0 0 0 1 1 0 0 0 0 0 
124 15 21118 1 0 1 0 1 1 1 1 0 1 1 1 1 1 1 
125 15 16080 0 1 0 0 0 1 0 0 0 1 0 1 1 1 1 
126 15 15040 0 0 0 0 0 0 1 0 1 1 0 0 0 0 0 
127 15 17416 0 0 1 1 0 1 1 0 1 0 0 0 0 1 1 
128 15 13388 1 1 1 1 1 1 0 1 0 1 1 0 1 0 0 
129 15 10920 0 0 1 0 0 0 1 0 0 0 0 0 0 1 1 
130 15 18210 1 1 0 1 0 1 1 1 1 1 1 0 1 0 0 
131 15 7802 1 0 0 1 1 0 0 1 0 0 0 0 1 0 0 
132 15 13233 1 1 1 1 1 1 0 0 0 1 0 0 0 0 1 
133 15 16411 1 0 1 0 0 1 1 0 0 0 0 0 0 1 1 
134 15 4421 0 0 0 0 0 0 1 1 0 0 0 0 0 0 0 
135 15 13065 1 1 0 1 0 1 0 0 1 0 1 1 1 1 1 
136 15 16288 1 0 0 1 1 0 1 1 1 1 0 1 1 1 1 
137 15 3210 0 0 0 0 0 1 0 0 0 0 0 0 0 1 0 
138 15 17834 1 1 0 1 0 0 1 1 1 0 1 1 0 1 1 
139 15 12418 0 0 0 1 1 0 0 1 0 0 0 0 0 1 0 
140 15 3233 0 0 0 0 0 0 0 0 0 0 1 1 0 0 1 
141 15 7830 0 0 0 0 0 1 1 1 0 0 1 1 1 0 0 
142 15 15654 1 0 0 1 0 0 0 0 1 0 0 1 1 1 0 
143 15 4371 0 0 0 1 1 1 0 0 0 0 0 0 0 1 1 
144 15 13199 0 1 0 0 0 0 0 1 0 1 1 0 1 0 1 
145 15 16140 1 0 1 0 1 1 1 0 0 0 1 0 1 0 1 
146 15 18577 0 0 0 1 1 1 0 1 0 0 0 0 0 0 1 
147 15 15913 0 0 0 0 1 0 0 1 0 0 0 1 1 0 1 
148 15 17798 0 0 0 1 0 0 0 1 1 0 1 0 1 1 0 
149 15 9699 0 0 0 1 0 1 1 1 1 0 0 0 1 1 0 
150 15 13491 1 0 1 1 1 0 1 0 0 0 0 0 1 1 0 
151 15 0 0 0 0 0 0 0 0 0 0 0 0 0 0 0 0 
152 15 12946 0 1 0 0 0 1 0 1 1 1 0 0 1 1 0 
153 15 14273 0 1 1 1 1 1 1 0 1 0 0 0 0 0 0 
154 15 13071 0 0 0 0 1 0 0 1 1 0 0 0 1 1 1 
155 15 4599 1 0 0 0 1 0 0 0 0 0 0 1 0 0 1 
156 15 16372 0 0 0 0 1 1 0 0 1 0 0 1 1 0 1 
157 15 17742 1 0 1 0 0 1 1 1 0 1 1 1 1 1 1 
158 15 10432 0 1 0 0 1 0 0 1 0 1 0 1 0 1 1 
159 15 11330 0 1 0 1 0 0 0 0 0 1 1 0 1 1 0 
160 15 15462 1 0 0 0 0 1 0 1 1 0 1 0 1 0 1 
161 15 13969 0 0 0 0 1 0 0 1 0 0 0 0 0 0 1 
162 15 11709 1 0 0 1 0 0 0 1 1 1 0 0 0 0 1 
163 15 8207 1 0 1 0 0 0 0 1 1 0 0 0 0 0 1 
164 15 9034 0 0 1 0 0 1 0 0 0 1 1 0 0 0 1 
165 15 13496 0 0 0 0 0 1 0 0 0 1 0 0 0 1 1 
166 15 12196 1 0 1 0 0 0 0 0 1 0 0 0 0 1 0 
167 15 20614 1 0 0 0 0 0 0 0 0 0 1 0 1 1 0 
168 15 2773 0 0 0 0 0 0 0 0 0 0 0 0 1 0 1 
169 15 18968 1 1 1 0 1 0 1 0 1 1 1 1 1 0 1 
170 15 12914 0 0 0 0 0 1 1 0 1 0 0 0 0 1 0 
171 15 6902 0 0 0 0 0 1 1 0 0 0 0 0 1 0 0 
172 15 15901 0 0 0 0 1 0 0 0 1 1 0 1 0 1 1 
173 15 19203 0 0 0 0 0 0 0 0 1 0 0 0 0 1 1 
174 15 18414 1 1 0 1 1 1 0 1 1 1 0 1 1 1 1 
175 15 16425 0 1 1 0 1 1 1 0 0 1 1 1 0 1 0 
176 15 15351 1 1 1 0 0 1 1 1 0 0 1 1 0 1 0 
177 15 8115 0 0 0 1 1 0 0 1 1 0 0 0 1 0 0 
178 15 15516 0 0 0 0 1 0 1 0 0 0 0 1 1 0 1 
179 15 6996 0 0 0 1 0 0 0 0 1 1 1 0 0 0 0 
180 15 12507 0 0 0 0 1 1 0 0 1 0 0 1 0 1 1 
181 15 8948 0 0 0 1 1 1 1 0 0 1 0 0 0 0 1 
182 15 14558 1 0 1 0 0 0 1 1 1 1 1 1 1 1 1 
183 15 6136 0 1 1 0 1 0 0 0 0 0 0 0 0 0 0 
184 15 13254 0 0 0 0 0 0 0 0 0 0 1 0 1 0 1 
185 15 9224 1 1 0 0 0 1 0 1 0 0 1 0 0 0 1 
186 15 15351 0 0 0 0 0 1 0 0 1 0 1 0 1 1 1 
187 15 12917 0 0 0 0 0 0 1 1 1 0 1 1 1 0 0 
188 15 21389 1 0 1 0 0 0 0 0 0 0 0 0 0 0 1 
189 15 20311 1 1 1 1 1 1 1 1 1 0 1 1 1 1 1 
190 15 15180 0 0 0 0 0 0 1 0 0 1 1 0 0 0 1 
191 15 12791 0 1 1 1 1 0 0 0 0 1 1 0 0 0 1 
192 15 10879 0 0 0 1 1 0 0 0 1 0 1 1 1 0 1 
193 15 17116 1 1 0 1 0 1 0 1 1 1 0 1 1 1 1 
194 15 16881 0 1 1 0 0 0 0 0 1 0 0 0 0 1 1 
195 15 15281 1 1 0 1 0 1 1 0 0 0 1 1 1 1 1 
196 15 14789 0 1 0 1 0 0 1 1 1 1 0 1 1 0 1 
197 15 9699 1 0 1 0 0 0 0 0 1 0 0 1 0 1 0 
198 15 7696 0 1 0 1 0 1 0 0 0 0 1 0 1 0 0 
199 15 16154 0 0 0 0 0 0 0 0 0 0 0 1 0 0 1 
200 15 22670 1 1 0 1 1 1 1 1 1 1 1 1 1 1 1 
201 15 7562 0 0 0 1 1 1 0 0 0 0 0 0 0 1 0 
202 15 10928 1 1 0 1 0 1 0 0 1 0 1 1 0 0 0 
203 15 17167 0 0 0 0 1 1 0 0 0 1 0 0 1 0 1 
204 15 16798 1 1 0 0 1 0 0 1 1 1 0 1 1 1 1 
205 15 12121 1 0 0 0 0 1 0 0 0 0 0 1 0 0 1 
206 15 15101 0 0 1 0 0 0 0 1 0 0 0 0 1 0 1 
207 15 9791 1 1 1 1 1 1 0 0 0 1 0 0 0 0 1 
208 15 16926 1 0 0 0 0 1 0 0 1 0 0 0 1 0 0 
209 15 8877 1 1 0 1 1 1 1 0 0 1 0 1 0 0 0 
210 15 5949 1 0 0 0 0 0 1 1 1 0 0 0 0 0 0 
211 15 12183 0 1 0 1 1 0 0 0 1 1 0 0 0 1 0 
212 15 13105 0 1 1 1 0 0 0 0 1 0 0 0 0 0 1 
213 15 11574 1 0 1 1 0 0 0 0 0 1 1 1 0 0 0 
214 15 21140 1 0 1 0 0 0 0 0 1 0 0 1 0 1 1 
215 15 17802 0 1 0 0 1 1 1 0 0 1 0 1 1 0 1 
216 15 15271 1 0 1 1 0 0 0 0 0 0 0 0 1 0 1 
217 15 11071 1 0 0 1 1 0 0 0 0 1 0 0 1 0 1 
218 15 8174 1 0 0 1 0 1 0 0 0 1 0 1 0 1 0 
219 15 18476 0 0 0 0 0 1 0 0 0 0 1 0 0 0 1 
220 15 20907 1 1 1 0 1 0 1 1 0 0 1 1 0 1 1 
221 15 18470 1 0 1 0 1 1 0 0 0 0 0 1 0 1 1 
222 15 17377 0 0 0 1 1 1 0 0 0 1 1 1 1 1 0 
223 15 13420 1 0 0 0 0 1 1 0 0 1 0 1 1 1 0 
224 15 4466 0 0 0 0 0 0 1 0 0 0 1 0 0 0 0 
225 15 19343 0 0 0 0 0 1 1 0 0 0 0 0 0 0 1 
226 15 13889 1 0 0 1 1 1 0 0 0 0 1 1 1 1 1 
227 15 14027 1 0 0 0 0 0 0 1 1 1 0 0 0 1 1 
228 15 11114 0 0 0 1 1 0 0 0 0 0 0 0 1 0 1 
229 15 15810 1 0 0 0 1 0 0 1 0 0 0 0 0 1 1 
230 15 2326 0 0 0 0 0 0 0 0 0 0 0 0 0 1 0 
231 15 12366 0 0 0 0 0 1 0 1 0 0 0 0 0 1 1 
232 15 18473 0 1 1 0 0 0 1 1 0 0 1 1 1 1 1 
233 15 11070 0 1 0 0 1 0 0 0 0 0 1 0 0 1 1 
234 15 16719 0 0 1 0 0 0 1 0 0 1 1 1 0 1 1 
235 15 12587 0 1 0 0 0 0 1 0 0 0 0 0 0 1 1 
236 15 18391 0 1 0 1 0 1 1 0 0 0 0 0 0 1 1 
237 15 2106 0 0 0 0 0 0 0 0 0 1 0 0 0 0 0 
238 15 16681 1 1 1 0 0 1 1 0 0 0 1 0 1 1 1 
239 15 0 0 0 0 0 0 0 0 0 0 0 0 0 0 0 0 
240 15 13296 0 1 0 1 0 1 0 1 1 1 1 0 0 1 0 
241 15 4883 1 0 0 0 0 0 0 1 1 0 0 0 0 0 0 
242 15 1630 0 0 0 0 0 0 0 0 0 0 0 0 0 0 1 
243 15 14063 0 0 1 1 0 0 1 0 0 0 1 1 0 0 1 
244 15 8451 0 0 0 0 1 0 1 0 0 1 0 0 0 1 0 
245 15 11492 1 1 1 0 1 1 1 1 0 1 0 0 0 1 1 
246 15 23423 0 0 0 0 0 1 1 1 1 1 1 1 1 0 1 
247 15 13431 1 0 0 1 1 0 0 0 0 1 0 0 1 1 0 
248 15 16611 0 1 0 0 0 0 0 0 1 0 0 0 1 1 1 
249 15 13230 1 1 1 1 1 0 0 1 0 1 1 1 0 1 1 
250 15 19091 1 1 0 0 0 1 0 0 1 1 1 0 0 1 1 
251 15 15846 0 0 0 1 0 1 0 0 1 1 0 0 0 0 1 
252 15 12186 0 1 0 1 1 0 0 1 0 1 0 0 1 1 0 
253 15 12187 1 1 1 1 0 0 0 0 1 1 0 0 1 1 1 
254 15 10451 0 1 0 1 1 0 1 0 0 0 1 0 0 1 0 
255 15 16516 0 0 1 0 1 0 0 1 0 0 0 0 0 0 1 
256 15 17905 1 1 1 1 1 0 0 1 1 1 0 1 1 1 1 
257 15 11908 0 1 0 1 0 0 0 0 1 0 1 0 1 1 0 
258 15 19623 0 0 0 0 0 1 0 1 0 1 0 1 1 0 1 
259 15 9900 0 0 0 0 0 1 0 1 0 1 1 1 0 1 1 
260 15 8472 0 0 0 0 1 0 0 1 0 0 1 0 0 0 1 
261 15 19892 1 1 1 1 1 1 1 1 1 1 1 1 0 0 1 
262 15 3733 0 0 0 0 0 0 0 0 1 0 0 0 0 0 1 
263 15 15745 0 0 1 0 1 0 1 1 0 0 0 0 0 0 1 
264 15 5250 1 1 0 0 1 0 0 0 1 1 0 0 0 0 0 
265 15 9270 1 0 0 1 0 1 1 1 0 1 0 1 0 1 0 
266 15 18730 0 0 1 1 1 0 0 1 0 0 1 0 1 1 1 
267 15 11520 1 1 0 0 0 0 1 0 1 0 0 0 0 0 1 
268 15 6427 1 0 1 0 0 1 0 0 0 0 1 0 0 0 1 
269 15 15875 0 0 1 0 0 1 0 1 0 0 0 0 1 0 1 
270 15 19269 1 0 0 1 0 0 1 1 0 0 0 0 1 1 0 
271 15 15190 0 0 1 0 1 0 1 1 0 0 1 0 0 0 1 
272 15 18257 0 0 0 0 0 0 1 1 0 1 1 1 0 0 1 
273 15 18670 1 0 1 1 0 1 1 1 1 1 1 1 1 1 1 
274 15 6324 0 0 0 0 0 0 1 0 0 0 0 1 1 0 0 
275 15 10988 1 1 0 1 1 1 1 0 1 0 0 0 0 1 0 
276 15 22004 0 1 0 0 0 0 0 0 1 0 1 1 1 1 1 
277 15 15646 0 1 0 1 0 0 0 1 1 1 1 0 1 0 1 
278 15 18072 0 0 1 1 0 1 0 0 0 0 0 0 0 0 1 
279 15 9865 0 0 0 0 0 0 1 0 1 0 1 1 0 0 0 
280 15 22193 1 1 1 1 1 1 1 1 1 1 0 1 0 1 1 
281 15 15325 0 1 1 1 0 0 0 1 0 1 0 1 1 1 1 
282 15 17054 0 0 0 0 0 0 0 0 1 0 0 1 1 1 0 
283 15 14237 1 0 0 0 0 1 1 1 1 0 1 0 0 1 1 
284 15 9021 1 0 0 0 0 0 1 1 1 1 0 1 1 0 0 
285 15 8302 0 0 0 1 1 0 0 0 0 0 1 0 1 1 0 
286 15 19362 1 0 1 0 0 1 0 0 1 1 1 0 1 1 1 
287 15 17098 1 0 0 1 0 1 1 1 1 1 0 1 1 0 1 
288 15 17353 1 1 1 1 0 1 1 1 0 0 0 1 1 1 1 
289 15 16260 1 1 1 1 0 1 1 1 1 0 1 1 1 0 1 
290 15 17491 1 1 1 1 0 1 1 1 0 1 1 1 1 1 1 
291 15 3535 0 0 0 0 0 0 0 0 0 1 0 0 0 1 0 
292 15 14049 1 0 0 1 0 0 1 0 0 0 0 1 0 1 1 
293 15 19358 0 1 0 0 1 0 1 0 1 1 1 0 1 1 1 
294 15 17142 1 0 1 1 1 1 1 1 1 0 1 1 1 1 0 
295 15 24910 1 1 1 1 1 1 0 1 0 0 0 1 0 1 1 
296 15 7016 0 0 0 1 0 1 1 0 0 0 0 0 0 0 1 
297 15 11752 1 1 0 0 0 0 0 0 1 0 0 1 0 0 1 
298 15 15752 0 0 1 0 1 0 1 1 1 1 1 0 1 1 1 
299 15 17402 0 0 0 0 0 0 1 0 1 1 0 0 1 0 1 
300 15 9713 0 0 1 0 1 1 0 1 0 0 0 0 0 1 0 
301 15 6542 1 1 0 1 0 0 0 0 0 0 0 1 0 1 0 
302 15 4716 0 1 0 0 0 0 0 0 0 0 0 1 0 0 0 
303 15 0 0 0 0 0 0 0 0 0 0 0 0 0 0 0 0 
304 15 16282 0 0 1 0 1 1 0 0 1 0 0 0 1 0 1 
305 15 18228 1 1 1 0 1 1 0 1 1 1 1 1 1 1 1 
306 15 21054 0 0 0 0 0 0 0 1 0 1 1 0 0 1 1 
307 15 7125 0 1 0 0 0 0 0 1 1 0 0 0 0 1 1 
308 15 19509 0 1 0 0 1 0 1 1 0 0 0 0 1 1 1 
309 15 14594 1 0 1 1 1 0 0 0 1 0 0 1 0 0 1 
310 15 8465 0 0 0 0 0 0 0 0 1 1 0 1 0 0 1 
311 15 19666 0 1 0 1 0 1 0 0 0 1 1 0 1 1 0 
312 15 13030 0 0 0 0 0 1 0 0 0 0 0 1 0 1 1 
313 15 6690 1 1 0 0 0 0 0 0 1 0 1 1 0 0 0 
314 15 15189 0 0 0 0 1 0 1 0 1 1 1 1 0 1 0 
315 15 11506 0 0 0 0 0 1 0 0 0 1 1 1 1 0 1 
316 15 4372 0 0 0 0 0 0 0 1 0 0 0 0 0 1 0 
317 15 13588 0 1 0 0 1 1 1 0 1 1 0 0 0 1 1 
318 15 18330 0 0 0 0 0 1 0 0 0 0 0 0 1 0 1 
319 15 6742 0 0 1 0 0 0 0 0 0 0 1 1 1 0 1 
320 15 9080 1 1 0 1 0 1 1 0 1 0 0 0 1 0 0 
321 15 13134 0 0 0 0 0 0 0 1 0 1 0 0 0 1 1 
322 15 19033 0 0 0 0 0 0 1 1 0 0 1 1 0 1 1 
323 15 12738 1 0 0 0 1 1 0 0 0 0 0 0 0 1 1 
324 15 16199 1 1 1 1 0 1 1 0 0 0 1 0 1 1 0 
325 15 13579 1 0 0 0 0 0 0 1 1 0 1 0 0 1 0 
326 15 17667 0 1 0 1 1 0 0 0 1 1 1 0 0 0 1 
327 15 15738 1 1 0 0 0 0 1 0 0 0 0 0 1 1 1 
328 15 17506 0 0 0 0 0 0 1 0 0 0 1 1 0 1 1 
329 15 14853 1 0 1 1 1 1 1 0 0 1 0 1 0 0 0 
330 15 9290 0 0 0 0 0 0 1 1 0 0 0 0 1 1 1 
331 15 16587 0 0 1 0 0 0 1 1 0 0 0 0 1 0 0 
332 15 10977 0 0 1 1 0 1 1 0 0 0 0 1 1 0 1 
333 15 20105 0 0 1 1 0 0 0 1 1 0 1 0 1 0 1 
334 15 11611 0 1 1 0 1 0 0 0 0 0 1 0 0 1 0 
335 15 19852 0 1 0 0 1 1 1 0 1 1 1 1 1 1 0 
336 15 15868 0 0 0 0 0 0 1 1 0 0 0 0 0 1 1 
337 15 17445 1 0 0 1 1 1 1 1 0 1 1 1 1 0 1 
338 15 16852 1 0 0 0 1 1 0 1 0 1 0 0 1 1 1 
339 15 13242 0 1 1 1 1 1 0 1 1 1 0 0 0 0 0 
340 15 9781 0 0 0 1 1 1 0 1 0 0 0 1 0 0 0 
341 15 4907 1 1 0 0 0 0 0 0 0 0 0 0 1 0 0 
342 15 12836 1 0 0 0 0 0 0 1 0 0 0 0 0 1 1 
343 15 18065 1 0 1 0 1 0 0 1 1 1 1 0 0 0 1 
344 15 18017 0 0 0 0 0 0 0 0 0 1 1 0 0 1 1 
345 15 8022 0 0 1 0 0 0 0 1 1 0 0 0 0 1 1 
346 15 13499 0 1 0 0 0 1 1 0 1 1 0 1 1 1 1 
347 15 15992 0 1 0 1 0 1 1 0 1 0 1 1 0 1 1 
348 15 14169 0 1 1 1 1 1 0 1 1 1 0 0 0 1 1 
349 15 11943 1 0 0 0 0 0 1 0 1 1 0 0 1 1 1 
350 15 19861 0 1 1 0 1 1 1 0 1 1 0 1 0 1 1 
351 15 15934 0 0 1 0 1 1 1 0 0 0 0 0 1 0 1 
352 15 15091 0 0 0 0 1 0 0 0 0 1 0 0 1 0 1 
353 15 15456 0 0 0 0 1 0 0 0 0 1 0 0 1 1 1 
354 15 15118 0 1 1 0 1 1 1 1 0 0 0 1 1 1 0 
355 15 13218 0 0 0 0 0 0 0 0 0 0 0 0 1 0 1 
356 15 19350 0 0 0 0 1 0 0 0 0 0 1 1 0 0 1 
357 15 2015 0 0 0 0 0 0 0 0 0 0 1 0 0 0 0 
358 15 6186 0 0 0 0 0 0 0 0 0 0 1 0 1 0 0 
359 15 17879 1 1 1 1 1 0 1 1 1 1 1 0 0 1 1 
360 15 19505 0 0 0 1 0 0 0 0 0 0 0 1 1 1 1 
361 15 17086 0 1 1 0 0 1 0 0 0 0 1 0 0 0 1 
362 15 16367 0 0 0 0 0 0 0 1 0 0 1 0 1 0 1 
363 15 21757 0 0 1 1 1 1 1 0 1 1 1 1 1 1 1 
364 15 5091 0 0 0 1 0 0 0 0 1 0 0 1 0 1 0 
365 15 20485 0 1 0 0 0 1 0 1 0 0 0 1 1 0 1 
366 15 11460 1 1 0 1 0 0 1 0 1 0 1 0 0 0 1 
367 15 4982 0 0 0 1 1 0 1 0 0 0 0 1 0 0 0 
368 15 12065 0 1 1 0 1 1 1 1 1 1 0 1 0 0 1 
369 15 21442 0 1 1 0 1 1 1 0 0 0 0 0 1 1 1 
370 15 12901 1 0 0 0 0 0 1 0 0 0 1 0 0 0 1 
371 15 5994 0 0 0 0 1 0 1 0 0 1 0 0 0 0 0 
372 15 10052 0 0 1 0 0 0 0 1 1 0 1 0 1 0 1 
373 15 7474 0 0 0 0 0 1 1 1 0 0 0 1 0 0 0 
374 15 14619 0 0 0 0 0 1 0 0 0 0 0 0 0 0 1 
375 15 16719 1 0 0 1 1 0 0 0 0 0 0 0 1 1 0 
376 15 20278 0 0 1 0 1 0 1 0 0 0 0 0 0 1 1 
377 15 7311 0 0 0 0 0 0 1 1 0 0 0 0 1 1 0 
378 15 17428 1 0 1 0 1 1 0 1 0 1 0 1 0 1 1 
379 15 23310 1 0 0 0 0 0 1 1 0 0 1 0 1 1 1 
380 15 12562 1 0 0 0 1 0 0 0 0 0 0 1 0 1 1 
381 15 14531 1 1 1 0 0 1 0 0 1 1 1 0 0 1 1 
382 15 15353 0 1 0 1 1 0 0 1 0 1 0 1 1 1 1 
383 15 16590 0 1 0 0 1 1 0 0 0 0 0 0 0 0 1 
384 15 15418 0 1 0 0 1 0 0 1 0 1 1 1 1 1 1 
385 15 6736 0 1 0 0 0 0 0 1 0 1 0 0 0 0 1 
386 15 12608 0 0 1 0 0 0 0 0 0 0 0 1 0 0 1 
387 15 18091 0 1 0 0 1 0 1 0 1 1 0 0 0 1 1 
388 15 4377 0 0 0 0 0 0 0 0 0 1 0 0 0 0 1 
389 15 14757 0 0 1 1 1 1 0 1 0 0 0 1 1 1 1 
390 15 11625 0 0 1 1 0 0 0 1 1 0 1 0 1 0 1 
391 15 10079 0 1 0 0 1 0 1 0 0 1 1 0 0 0 0 
392 15 18084 0 1 0 1 0 0 1 1 1 1 0 1 1 1 1 
393 15 18175 0 1 1 0 0 0 0 1 1 0 1 1 1 0 1 
394 15 14034 1 0 1 0 1 0 1 0 1 1 1 0 0 1 0 
395 15 12444 1 0 1 0 0 0 1 1 1 0 1 0 1 0 1 
396 15 12219 0 0 1 0 0 0 1 1 0 0 0 1 1 1 0 
397 15 6908 1 0 1 0 0 0 1 0 0 0 0 1 0 0 0 
398 15 5394 0 1 0 0 1 0 0 0 1 0 1 0 0 0 0 
399 15 15143 1 0 0 0 0 0 1 1 1 0 1 1 1 0 1 
400 15 13194 0 1 0 0 1 0 0 1 1 0 1 0 1 0 1 
401 15 17361 1 1 1 0 0 1 1 1 1 1 1 0 1 0 1 
402 15 17968 0 0 0 1 1 0 1 0 0 0 0 0 0 0 1 
403 15 3915 0 0 0 0 0 0 0 0 1 0 1 0 0 0 0 
404 15 4440 0 0 0 0 0 0 1 0 1 0 0 0 0 0 0 
405 15 14649 1 1 0 1 0 1 0 1 0 1 1 0 1 1 0 
406 15 16374 1 1 1 1 1 0 1 0 1 1 1 1 1 1 0 
407 15 15157 0 1 1 1 0 0 0 1 0 0 1 0 0 1 1 
408 15 13744 0 0 0 0 1 1 1 1 1 0 1 1 0 0 0 
409 15 9767 0 0 0 0 1 0 1 1 1 0 1 1 0 1 0 
410 15 22043 0 0 0 0 0 0 1 0 0 0 0 0 0 1 1 
411 15 7080 0 0 0 0 1 0 1 0 0 0 0 0 1 1 0 
412 15 21766 0 0 1 0 0 0 0 0 0 1 0 0 1 1 1 
413 15 22722 1 1 1 1 0 1 1 1 1 1 1 1 1 1 1 
414 15 12013 0 0 0 1 1 0 0 0 0 1 0 1 1 1 1 
415 15 16544 1 1 0 1 1 1 1 0 1 0 1 0 1 0 1 
416 15 20620 0 0 0 1 1 0 0 0 1 0 1 0 1 1 0 
417 15 11375 1 1 0 1 0 1 0 1 1 0 0 0 1 0 1 
418 15 14442 1 1 0 1 0 1 1 0 0 1 1 0 0 1 1 
419 15 9290 0 0 0 1 1 1 0 0 0 0 1 1 0 0 0 
420 15 12680 0 0 0 0 0 0 0 1 0 1 0 0 0 1 0 
421 15 17386 1 1 1 1 0 1 0 0 1 1 0 1 1 1 1 
422 15 12017 0 0 1 0 0 1 0 1 1 1 1 0 0 1 0 
423 15 6902 0 1 0 1 0 0 0 1 0 1 0 0 0 0 1 
424 15 17330 0 0 1 1 1 1 0 0 0 0 1 1 1 1 1 
425 15 10668 1 0 1 0 0 0 0 0 0 1 1 1 1 0 0 
426 15 10450 0 1 1 0 0 0 0 0 1 0 1 1 1 1 0 
427 15 18326 1 1 0 1 1 0 1 1 1 1 0 0 0 1 0 
428 15 7758 0 1 1 0 1 1 0 0 0 1 0 0 0 1 1 
429 15 10288 0 0 1 1 0 0 0 0 0 0 1 0 1 1 1 
430 15 17342 1 1 1 0 1 1 0 0 1 0 0 1 1 1 0 
431 15 17883 0 1 0 1 1 1 1 1 1 1 1 1 1 0 1 
432 15 13929 0 0 0 1 1 0 1 1 0 0 0 1 0 1 1 
433 15 7165 0 0 0 0 1 0 1 0 0 0 1 0 1 0 0 
434 15 17510 0 0 1 0 0 0 1 0 0 0 0 0 0 1 1 
435 15 9160 0 0 0 0 1 0 0 1 0 1 0 1 0 1 0 
436 15 12816 1 1 0 1 0 1 1 0 1 1 0 1 1 0 0 
437 15 17784 0 1 0 0 0 1 0 0 0 0 0 0 0 1 1 
438 15 14881 1 1 0 0 0 0 0 0 1 0 1 1 1 1 1 
439 15 12983 0 0 0 0 1 0 0 0 0 0 1 1 0 1 1 
440 15 11810 0 1 0 1 1 1 0 0 1 0 1 1 0 0 1 
441 15 18036 0 0 0 0 0 1 1 0 1 1 0 0 0 1 1 
442 15 12434 1 1 1 1 0 1 1 1 0 0 0 0 1 1 0 
443 15 17806 0 0 1 0 0 0 0 0 0 0 0 1 1 1 1 
444 15 10014 0 0 0 1 1 0 1 1 0 0 1 0 0 0 1 
445 15 17179 1 1 1 1 1 1 0 0 1 0 0 1 1 1 1 
446 15 5963 0 0 0 0 0 1 0 1 0 1 1 0 0 0 0 
447 15 6833 0 0 1 0 0 0 0 0 0 1 1 0 1 0 1 
448 15 13675 0 1 0 0 0 0 0 0 1 0 1 0 0 0 1 
449 15 4267 1 0 0 0 0 0 0 0 0 0 0 1 0 0 1 
450 15 21598 0 0 0 1 0 0 1 0 0 1 1 1 1 1 1 
451 15 18112 1 1 0 0 0 1 1 0 1 1 1 1 0 0 1 
452 15 10761 1 1 1 0 1 0 1 0 1 0 0 0 1 1 0 
453 15 18595 0 0 1 0 0 0 0 0 0 0 1 0 0 1 1 
454 15 10261 1 0 0 0 1 0 0 0 1 0 0 0 1 0 0 
455 15 10783 1 0 0 1 1 0 0 1 0 0 0 1 0 0 0 
456 15 15075 1 0 0 0 0 1 0 0 0 0 1 0 0 1 1 
457 15 24119 1 0 0 0 0 1 0 0 1 1 0 0 0 1 1 
458 15 11170 0 0 1 0 0 0 0 0 0 1 1 0 1 1 1 
459 15 11529 1 1 1 0 1 1 0 1 0 0 1 0 0 1 0 
460 15 15539 0 0 0 1 1 0 0 1 1 1 1 1 0 1 0 
461 15 9570 0 1 0 1 0 1 0 0 0 0 1 1 0 0 0 
462 15 20295 0 0 1 0 0 0 0 1 0 0 0 0 1 1 0 
463 15 1802 0 0 0 0 0 0 0 0 0 0 0 1 0 0 0 
464 15 19486 0 0 1 0 1 0 1 1 0 0 0 0 1 1 1 
465 15 13923 0 0 0 1 0 1 0 0 0 0 0 1 0 0 1 
466 15 7959 1 0 0 1 1 0 1 0 0 1 0 1 0 0 0 
467 15 1273 0 0 0 0 0 0 0 1 0 0 0 0 0 0 0 
468 15 2141 0 0 1 0 0 0 0 0 0 1 0 0 0 0 0 
469 15 10639 0 1 1 1 0 0 0 0 0 0 1 0 0 1 0 
470 15 11351 0 1 0 1 1 0 1 0 0 0 0 1 0 1 0 
471 15 13120 1 0 0 1 1 0 1 1 1 0 1 1 1 1 1 
472 15 18245 1 0 0 1 1 0 0 1 0 1 1 1 0 1 1 
473 15 9212 0 0 1 0 1 0 0 0 0 0 0 1 0 1 0 
474 15 17223 0 0 0 1 1 0 1 1 0 0 0 0 0 0 1 
475 15 17955 1 0 0 0 0 0 1 0 0 1 1 0 0 0 1 
476 15 15035 0 0 1 1 0 1 1 1 1 1 1 1 1 0 1 
477 15 8299 0 0 0 0 0 0 0 1 0 0 0 0 0 1 1 
478 15 8783 0 0 0 0 0 1 0 0 1 0 0 0 1 0 1 
479 15 14477 0 1 0 0 0 0 1 1 1 0 1 1 0 1 0 
480 15 16049 1 1 1 1 1 0 1 0 1 0 1 0 1 1 1 
481 15 4821 0 0 0 0 0 0 1 0 0 1 0 1 0 0 0 
482 15 10262 1 0 0 1 0 0 0 1 1 0 1 1 0 0 0 
483 15 12042 1 0 0 1 1 0 1 0 0 1 1 1 0 0 0 
484 15 15195 0 0 1 1 1 1 0 1 1 0 0 1 1 0 1 
485 15 15694 0 0 0 0 1 1 0 0 0 0 0 0 0 0 1 
486 15 0 0 0 0 0 0 0 0 0 0 0 0 0 0 0 0 
487 15 17709 0 1 0 0 1 1 1 0 0 1 1 0 1 0 0 
488 15 12091 0 0 0 0 0 0 0 1 0 0 0 1 0 1 0 
489 15 1148 0 0 0 0 0 0 0 1 0 0 0 0 0 0 0 
490 15 12067 1 1 0 0 1 1 0 0 0 0 1 0 0 1 1 
491 15 14174 1 1 0 1 0 0 1 1 0 1 1 0 1 1 1 
492 15 8796 1 1 0 0 0 0 0 0 1 0 1 0 1 0 0 
493 15 17543 1 0 1 1 1 1 1 0 1 0 1 0 0 1 1 
494 15 8960 0 0 1 0 0 0 0 1 0 0 1 1 1 0 1 
495 15 19538 0 0 0 0 1 0 0 0 1 0 0 1 0 0 1 
496 15 13897 1 0 0 0 1 1 0 0 1 0 0 0 0 0 1 
497 15 18177 0 1 0 1 0 0 1 0 0 0 1 1 0 0 1 
498 15 9190 1 0 1 1 0 0 1 1 0 0 0 0 0 1 0 
499 15 16424 0 0 1 1 0 0 1 0 1 0 0 1 1 1 1 
500 15 22985 0 0 0 0 0 1 1 1 0 0 1 0 1 0 1 
