---BNB
real 6.71
user 6.53
sys 0.08
real 6.36
user 6.23
sys 0.08
real 6.44
user 6.29
sys 0.08
real 6.54
user 6.40
sys 0.08
real 6.44
user 6.32
sys 0.08
real 7.07
user 6.84
sys 0.11
real 6.77
user 6.49
sys 0.10
real 5.86
user 5.76
sys 0.05
real 5.69
user 5.59
sys 0.04
real 5.65
user 5.58
sys 0.04
---HEURISTIC
real 0.23
user 0.05
sys 0.01
real 0.06
user 0.05
sys 0.00
real 0.05
user 0.04
sys 0.00
real 0.05
user 0.05
sys 0.00
real 0.05
user 0.04
sys 0.00
real 0.06
user 0.05
sys 0.01
real 0.07
user 0.05
sys 0.01
real 0.07
user 0.05
sys 0.01
real 0.07
user 0.05
sys 0.01
real 0.06
user 0.05
sys 0.00
---REDUX
real 0.09
user 0.04
sys 0.00
real 0.05
user 0.04
sys 0.00
real 0.05
user 0.04
sys 0.00
real 0.05
user 0.04
sys 0.00
real 0.05
user 0.04
sys 0.00
real 0.06
user 0.05
sys 0.00
real 0.06
user 0.05
sys 0.01
real 0.06
user 0.05
sys 0.01
real 0.06
user 0.05
sys 0.01
real 0.07
user 0.05
sys 0.01
---DP-E00
real 2.78
user 2.55
sys 0.17
real 3.00
user 2.79
sys 0.18
real 2.79
user 2.60
sys 0.17
real 2.79
user 2.60
sys 0.17
real 2.90
user 2.67
sys 0.17
real 2.81
user 2.62
sys 0.17
real 2.78
user 2.59
sys 0.17
real 2.87
user 2.68
sys 0.17
real 2.76
user 2.56
sys 0.16
real 2.65
user 2.47
sys 0.16
---DP-E01
real 0.48
user 0.23
sys 0.01
real 0.28
user 0.26
sys 0.01
real 0.24
user 0.22
sys 0.01
real 0.23
user 0.22
sys 0.01
real 0.23
user 0.22
sys 0.01
real 0.23
user 0.22
sys 0.01
real 0.24
user 0.22
sys 0.01
real 0.24
user 0.22
sys 0.01
real 0.24
user 0.22
sys 0.01
real 0.24
user 0.22
sys 0.01
---DP-E02
real 0.19
user 0.13
sys 0.01
real 0.15
user 0.14
sys 0.01
real 0.15
user 0.14
sys 0.01
real 0.18
user 0.16
sys 0.01
real 0.16
user 0.15
sys 0.01
real 0.16
user 0.14
sys 0.01
real 0.16
user 0.15
sys 0.01
real 0.14
user 0.13
sys 0.01
real 0.18
user 0.16
sys 0.01
real 0.17
user 0.16
sys 0.01
